<svg width="590" height="78" viewBox="0 0 590 78" fill="none" xmlns="http://www.w3.org/2000/svg">
<g clip-path="url(#clip0)">
<mask id="mask0" mask-type="alpha" maskUnits="userSpaceOnUse" x="0" y="0" width="59" height="77">
<path d="M0.0519155 0.902222H58.0824V76.3542H0.0493164L0.0519155 0.902222Z" fill="black"/>
</mask>
<g mask="url(#mask0)">
<path d="M46.7503 22.3548C46.7503 28.2048 44.8478 32.6274 41.0947 35.5056C37.3077 38.4072 31.4675 39.8792 23.7403 39.8792C22.2536 39.8842 20.7674 39.8269 19.2855 39.7072C18.0431 39.6032 16.8631 39.4498 15.7715 39.2522V11.6402C15.7715 8.78805 16.5096 6.88745 17.9625 5.99305C19.483 5.05705 22.3732 4.58385 26.55 4.58385C33.0218 4.58385 38.0641 6.14125 41.5391 9.21185C44.9959 12.2746 46.7503 16.6972 46.7503 22.3548ZM48.8608 6.62485C42.8049 2.82885 34.2876 0.904846 23.5428 0.904846C22.6487 0.904846 21.2712 0.933446 19.2127 1.00365C17.3049 1.06865 15.1529 1.17005 12.8189 1.30265L0 1.99945V4.76585L0.397665 4.78405C1.89736 4.84385 2.9448 5.47305 3.59978 6.70285C4.28595 7.99765 4.63423 10.2778 4.63423 13.4836V65.0208C4.63423 68.094 4.28595 70.3274 3.59718 71.6534C2.9448 72.9144 1.89996 73.5514 0.405463 73.58L0 73.5878V76.3568H20.4083V73.5878L20.0002 73.58C18.5031 73.554 17.4583 72.93 16.8059 71.7002C16.1197 70.408 15.7715 68.1616 15.7715 65.0182V42.9286C17.3959 43.1626 19.0515 43.3472 20.6994 43.4824C22.5006 43.6332 24.3381 43.7086 26.1575 43.7086C36.2837 43.7086 44.2084 41.8652 49.7081 38.233C55.2651 34.5618 58.0825 29.289 58.0825 22.555C58.0825 15.821 54.9792 10.4598 48.8608 6.62485Z" fill="black"/>
</g>
<path d="M116.103 60.255L113.231 59.293L113.054 59.5452C111.364 61.9424 109.774 63.9392 108.334 65.481C106.904 67.0046 105.55 68.1356 104.31 68.8402C102.27 69.986 100.054 70.7872 97.7528 71.2114C95.3096 71.6872 91.4291 71.929 86.2205 71.929C81.9319 71.929 80.2893 71.3622 79.6629 70.889C79.0651 70.434 78.3503 69.0976 78.3503 65.3172V13.481C78.3503 10.2778 78.6986 7.99501 79.3848 6.70281C80.0424 5.47041 81.0898 4.84121 82.5869 4.78141L82.9846 4.76581V1.99681H62.3813V4.76581L62.779 4.78141C64.2761 4.84121 65.3262 5.48601 65.9785 6.74961C66.6673 8.08081 67.0182 10.3454 67.0182 13.4836V65.0182C67.0182 68.0914 66.6751 70.317 66.0019 71.63C65.3625 72.878 64.3047 73.4734 62.7712 73.5644L62.3813 73.5878V76.3542H112.188L116.105 60.255H116.103ZM172.002 68.861C173.639 66.6666 174.835 63.7676 175.555 60.2446C176.264 56.7606 176.623 51.493 176.623 44.5822V20.7116C176.623 15.3738 177.101 11.4946 178.045 9.18321C178.975 6.90561 180.527 5.55361 182.788 4.85681L183.084 4.76581V1.99681H165.19V4.76581L165.54 4.82301C167.848 5.20001 169.496 6.52601 170.577 8.97001C171.682 11.4582 172.241 15.2438 172.241 20.2124V44.4834C172.241 52.3224 171.773 57.9254 170.853 61.139C169.948 64.311 168.358 66.8486 166.136 68.679C164.367 70.0913 162.337 71.1418 160.163 71.7704C157.915 72.436 155.183 72.774 152.046 72.774C145.335 72.774 140.532 71.0632 137.766 67.6936C134.985 64.298 133.574 58.318 133.574 49.9174V13.481C133.574 10.2778 133.922 7.99501 134.608 6.70281C135.263 5.47041 136.311 4.84121 137.81 4.78141L138.208 4.76581V1.99681H117.605V4.76581L118.003 4.78141C119.5 4.84121 120.547 5.48601 121.202 6.74961C121.891 8.07561 122.242 10.3428 122.242 13.4836V47.8738C122.242 54.0592 122.593 58.6638 123.287 61.555C123.988 64.4748 125.158 67.002 126.769 69.069C129.072 71.9394 132.173 74.1702 135.986 75.699C139.781 77.2252 144.207 77.9974 149.137 77.9974C154.458 77.9974 159.048 77.2434 162.775 75.751C166.531 74.2482 169.634 71.9316 172.002 68.861ZM249.38 65.9698C249.445 66.4638 249.495 66.9136 249.526 67.3218C249.56 67.7248 249.575 68.1018 249.575 68.4606C249.575 69.9478 249.201 71.1646 248.46 72.0824C247.725 72.9924 246.763 73.4682 245.523 73.5592L245.136 73.5852V76.3542H265.544V73.5878L265.217 73.515C263.998 73.2446 262.929 72.3086 262.046 70.603C261.115 68.8246 260.416 66.339 259.966 63.219L252.912 13.1092C252.718 11.9799 252.622 10.836 252.624 9.69021C252.624 8.26801 252.967 7.11621 253.643 6.26601C254.308 5.42881 255.267 4.95821 256.502 4.80741L256.866 4.76321V1.99681H240.99L225.518 59.774L208.977 1.99681H192.174V4.76581L192.436 4.86981C194.022 5.49901 195.152 6.21401 195.789 7.22801C196.434 8.25241 196.758 9.76821 196.758 11.739C196.758 12.8414 196.727 13.9568 196.66 15.0774L196.665 15.366L190.157 59.3268C189.541 63.5752 188.522 66.937 187.126 69.316C185.764 71.6456 184.033 73.008 181.988 73.5098L181.671 73.5878V76.3542H200.4V73.5878L200.057 73.528C198.126 73.1822 196.706 72.3086 195.724 70.7512C194.736 69.1808 194.237 66.9656 194.237 64.1732C194.237 63.4582 194.276 62.6314 194.359 61.7188C194.437 60.8192 194.56 59.8208 194.723 58.7496L201.112 14.1856L219.646 77.1524H225.354L242.074 14.3208L249.38 65.9698ZM415.422 68.861C417.06 66.6666 418.255 63.7676 418.975 60.2446C419.682 56.7606 420.041 51.493 420.041 44.5822V20.7116C420.041 15.3738 420.522 11.4946 421.465 9.18321C422.393 6.90561 423.947 5.55361 426.209 4.85681L426.502 4.76581V1.99681H408.61V4.76581L408.958 4.82301C411.266 5.20001 412.914 6.52601 413.995 8.97001C415.1 11.4582 415.661 15.2438 415.661 20.2124V44.4834C415.661 52.3224 415.194 57.9254 414.271 61.139C413.366 64.311 411.778 66.8486 409.556 68.679C407.787 70.0913 405.758 71.1418 403.583 71.7704C401.335 72.436 398.603 72.774 395.464 72.774C388.753 72.774 383.95 71.0632 381.187 67.6936C378.406 64.298 376.992 58.318 376.992 49.9174V13.481C376.992 10.2778 377.34 7.99501 378.029 6.70281C378.681 5.47041 379.729 4.84121 381.228 4.78141L381.629 4.76581V1.99681H361.023V4.76581L361.42 4.78141C362.917 4.84121 363.965 5.48601 364.62 6.74961C365.309 8.07561 365.66 10.3428 365.66 13.4836V47.8738C365.66 54.0592 366.01 58.6638 366.704 61.555C367.406 64.4748 368.576 67.002 370.187 69.069C372.49 71.9394 375.593 74.1702 379.406 75.699C383.201 77.2252 387.625 77.9974 392.555 77.9974C397.878 77.9974 402.466 77.2434 406.195 75.751C409.949 74.2482 413.052 71.9316 415.422 68.861ZM354.793 66.547C353.568 66.4846 352.641 65.975 351.957 64.9792C351.255 63.9574 350.897 62.53 350.897 60.7334V38.6568C350.897 37.024 351.26 35.971 351.98 34.9544C352.674 33.9664 353.54 33.4854 354.624 33.4854H355.04V30.7086H316.664V33.4854C316.664 33.4854 318.327 33.618 319.77 33.6778C324.586 33.8676 334.559 34.0184 337.399 35.3886C339.193 36.2518 340.154 38.1134 340.154 40.1986V62.5794C340.154 66.0712 338.613 68.913 335.575 71.0294C332.49 73.1796 328.328 74.269 323.211 74.269C315.338 74.269 309.29 71.279 305.233 65.377C301.142 59.436 299.068 50.5934 299.068 39.1014C299.068 27.846 301.069 19.1568 305.012 13.273C308.923 7.44121 314.662 4.48501 322.078 4.48501C327.029 4.48501 331.59 6.00081 335.642 8.99081C339.702 11.986 342.959 16.2552 345.319 21.6788L345.423 21.9128L347.749 22.048L350.756 9.10261L350.507 8.94401C346.091 6.11521 341.732 3.96501 337.545 2.54541C333.342 1.12581 329.202 0.405609 325.233 0.405609C320.31 0.405609 315.59 1.23761 311.205 2.87561C306.818 4.51361 302.979 6.87441 299.8 9.88781C295.693 13.7489 292.449 18.4364 290.283 23.6418C288.133 28.8184 287.044 34.4916 287.044 40.4976C287.044 45.3778 287.782 50.0604 289.235 54.4154C290.693 58.7834 292.775 62.5794 295.429 65.689C298.935 69.875 302.857 73.0054 307.086 74.997C311.312 76.9886 316.157 78 321.485 78C326.527 78 331.874 77.2226 337.376 75.6938C342.865 74.165 348.796 71.7912 355.008 68.6374L355.247 68.5152L355.17 66.5652L354.793 66.547ZM432.267 4.76581L432.665 4.78141C434.162 4.84121 435.209 5.48601 435.862 6.74961C436.553 8.08081 436.901 10.348 436.901 13.4836V65.0182C436.901 68.0914 436.561 70.317 435.888 71.63C435.248 72.878 434.191 73.4734 432.657 73.5644L432.267 73.5878V76.3542H452.87V73.5878L452.473 73.5722C450.939 73.515 449.884 72.891 449.247 71.6742C448.574 70.4002 448.234 68.159 448.234 65.0182V13.481C448.234 10.2778 448.584 7.99501 449.271 6.70281C449.926 5.47041 450.973 4.84121 452.473 4.78141L452.87 4.76581V1.99681H432.267V4.76581ZM476.897 66.2142V13.481C476.897 10.2622 477.702 8.09901 479.293 7.05641C480.946 5.97741 484.546 5.42881 489.991 5.42881C498.493 5.42881 504.91 8.27321 509.069 13.884C513.248 19.5312 515.369 28.249 515.369 39.7982C515.369 51.7322 513.139 60.255 508.744 65.1352C504.362 70.005 496.658 72.475 485.851 72.475C482.017 72.475 479.535 72.0356 478.467 71.1698C477.427 70.3274 476.897 68.6608 476.897 66.2142ZM508.281 5.53021C505.495 4.09241 502.347 3.03421 498.924 2.37901C495.504 1.72901 491.106 1.39881 485.851 1.39881C484.039 1.39881 482.532 1.40921 481.331 1.42481C480.13 1.44301 478.921 1.46901 477.702 1.50021L461.123 1.99681V4.76581L461.523 4.78141C463.02 4.84121 464.07 5.47041 464.725 6.70541C465.411 7.99761 465.759 10.2778 465.759 13.481V65.0182C465.759 68.094 465.411 70.3274 464.72 71.6534C464.07 72.9144 463.023 73.5514 461.531 73.5774L461.123 73.5878V76.3542H488.413C500.562 76.3542 510.194 73.1302 517.05 66.7758C523.912 60.4058 527.395 51.467 527.395 40.196C527.395 32.552 525.667 25.5476 522.259 19.383C518.849 13.208 514.145 8.54621 508.281 5.53281V5.53021ZM587.045 59.3424L586.834 59.6414C584.625 62.7614 582.507 65.208 580.539 66.9214C578.585 68.6192 576.523 69.8438 574.426 70.551C572.739 71.071 570.761 71.4532 568.539 71.6794C566.306 71.9108 562.488 72.0278 557.189 72.0278C551.795 72.0278 549.864 71.4584 549.191 70.9826C548.552 70.5276 547.79 69.173 547.79 65.3172V36.6288H559.31C564.672 36.6288 568.25 37.115 569.956 38.0718C571.632 39.013 572.911 40.7472 573.761 43.225L573.857 43.5084H576.342V25.1784H573.956L573.859 25.4592C573.012 27.9604 571.502 29.731 569.368 30.7216C567.18 31.7356 563.312 32.2556 557.88 32.2556H547.79V11.7416C547.79 8.69181 548.323 7.61801 548.77 7.25661C549.238 6.87701 550.706 6.42461 555.068 6.42461H558.174C566.712 6.42461 572.503 7.21501 575.388 8.76981C578.239 10.3038 580.43 13.13 581.898 17.1678L582.015 17.485L584.856 17.0846L583.609 1.99681H532.019V4.76581L532.416 4.78141C533.916 4.84121 534.964 5.47041 535.619 6.70541C536.305 8.00021 536.653 10.2804 536.653 13.481V65.0182C536.653 68.0914 536.305 70.3326 535.616 71.6638C534.964 72.9222 533.919 73.5514 532.427 73.58L532.019 73.5878V76.3542H585.363L589.782 60.8218L587.045 59.3424Z" fill="black"/>
</g>
<defs>
<clipPath id="clip0">
<rect width="590" height="78" fill="white"/>
</clipPath>
</defs>
</svg>
